Library\Bee\artifacts\mvdfrm\Unity.Notifications.Android.ref.dll_D74EC3067BD7BB2B.mvfrm
Library\Bee\artifacts\mvdfrm\Unity.Notifications.iOS.ref.dll_77F0EA2A00993C29.mvfrm
Library\Bee\artifacts\mvdfrm\UnityEditor.TestRunner.ref.dll_A805A84D9B0C22D9.mvfrm
Library\Bee\artifacts\mvdfrm\UnityEditor.UI.ref.dll_0174E068A5FA251B.mvfrm
Library\Bee\artifacts\mvdfrm\UnityEngine.TestRunner.ref.dll_7423F2FBC6CF80C4.mvfrm
Library\Bee\artifacts\mvdfrm\UnityEngine.UI.ref.dll_BDDAB6C3AC1C4D86.mvfrm
Library\Bee\artifacts\mvdfrm\Unity.Burst.Cecil.dll_1A3306AAF9FD3E05.mvfrm
Library\Bee\artifacts\mvdfrm\Unity.Burst.Cecil.Mdb.dll_217084D9F3F75A82.mvfrm
Library\Bee\artifacts\mvdfrm\Unity.Burst.Cecil.Pdb.dll_38C2FD4972AC5C05.mvfrm
Library\Bee\artifacts\mvdfrm\Unity.Burst.Cecil.Rocks.dll_619A675CDD95BEC5.mvfrm
Library\Bee\artifacts\mvdfrm\Unity.Burst.Unsafe.dll_B5506B5FF68D4FFE.mvfrm
Library\Bee\artifacts\mvdfrm\Unity.Plastic.Antlr3.Runtime.dll_84A2D80620AEFA04.mvfrm
Library\Bee\artifacts\mvdfrm\Unity.Plastic.Newtonsoft.Json.dll_31EEE5C4ACB7D0F1.mvfrm
Library\Bee\artifacts\mvdfrm\Unity.VisualScripting.IonicZip.dll_5A0AD7252EC766E9.mvfrm
Library\Bee\artifacts\mvdfrm\Unity.VisualScripting.YamlDotNet.dll_D9E890855CBFC963.mvfrm
Library\Bee\artifacts\mvdfrm\Unity.VisualScripting.Antlr3.Runtime.dll_8B55B7668D88D982.mvfrm
Library\Bee\artifacts\mvdfrm\UnityEditor.Graphs.dll_FE91D2CDBB0BE53B.mvfrm
Library\Bee\artifacts\mvdfrm\UnityEditor.CoreModule.dll_B67DFCF1A12CA409.mvfrm
Library\Bee\artifacts\mvdfrm\UnityEditor.DeviceSimulatorModule.dll_1027163BF1A1C708.mvfrm
Library\Bee\artifacts\mvdfrm\UnityEditor.DiagnosticsModule.dll_2CB11366C1DCF756.mvfrm
Library\Bee\artifacts\mvdfrm\UnityEditor.dll_299AF672CD4A673C.mvfrm
Library\Bee\artifacts\mvdfrm\UnityEditor.GraphViewModule.dll_6AD767C55AE58C6D.mvfrm
Library\Bee\artifacts\mvdfrm\UnityEditor.PackageManagerUIModule.dll_BDCC70C3BF8A3025.mvfrm
Library\Bee\artifacts\mvdfrm\UnityEditor.QuickSearchModule.dll_B7C094741AB3F3AF.mvfrm
Library\Bee\artifacts\mvdfrm\UnityEditor.SceneTemplateModule.dll_B33ED4D844BC0E10.mvfrm
Library\Bee\artifacts\mvdfrm\UnityEditor.TextCoreFontEngineModule.dll_7E79D9448FAC7767.mvfrm
Library\Bee\artifacts\mvdfrm\UnityEditor.TextCoreTextEngineModule.dll_C6620FB61F303085.mvfrm
Library\Bee\artifacts\mvdfrm\UnityEditor.UIBuilderModule.dll_BF6014E1CD9E05A1.mvfrm
Library\Bee\artifacts\mvdfrm\UnityEditor.UIElementsModule.dll_7A9F7EEE1A26C0A5.mvfrm
Library\Bee\artifacts\mvdfrm\UnityEditor.UIElementsSamplesModule.dll_65F0251BEFA89218.mvfrm
Library\Bee\artifacts\mvdfrm\UnityEditor.UIServiceModule.dll_F8522644B6D555BB.mvfrm
Library\Bee\artifacts\mvdfrm\UnityEditor.UnityConnectModule.dll_2EA545A958E2573F.mvfrm
Library\Bee\artifacts\mvdfrm\UnityEngine.AccessibilityModule.dll_E5E4406F453235AD.mvfrm
Library\Bee\artifacts\mvdfrm\UnityEngine.AIModule.dll_E6D313809AF6CB3D.mvfrm
Library\Bee\artifacts\mvdfrm\UnityEngine.AndroidJNIModule.dll_F8E867C163462F7B.mvfrm
Library\Bee\artifacts\mvdfrm\UnityEngine.AnimationModule.dll_395CE3EE35426113.mvfrm
Library\Bee\artifacts\mvdfrm\UnityEngine.ARModule.dll_A045D883F8142A06.mvfrm
Library\Bee\artifacts\mvdfrm\UnityEngine.AssetBundleModule.dll_FBA9C7657D1AA8A1.mvfrm
Library\Bee\artifacts\mvdfrm\UnityEngine.AudioModule.dll_8659D8E8DA6CC545.mvfrm
Library\Bee\artifacts\mvdfrm\UnityEngine.ClothModule.dll_ED4235E3B489A429.mvfrm
Library\Bee\artifacts\mvdfrm\UnityEngine.ClusterInputModule.dll_AE41BABF0A6A2A05.mvfrm
Library\Bee\artifacts\mvdfrm\UnityEngine.ClusterRendererModule.dll_15D3D8AD615CD48C.mvfrm
Library\Bee\artifacts\mvdfrm\UnityEngine.CoreModule.dll_D99ED04449320F34.mvfrm
Library\Bee\artifacts\mvdfrm\UnityEngine.CrashReportingModule.dll_588374CAC40C2B4C.mvfrm
Library\Bee\artifacts\mvdfrm\UnityEngine.DirectorModule.dll_3C3C4E882B0C8A51.mvfrm
Library\Bee\artifacts\mvdfrm\UnityEngine.dll_5C3F3D4B2BBDF421.mvfrm
Library\Bee\artifacts\mvdfrm\UnityEngine.DSPGraphModule.dll_418DAFF19D6D5B72.mvfrm
Library\Bee\artifacts\mvdfrm\UnityEngine.GameCenterModule.dll_2335B1DC2987206C.mvfrm
Library\Bee\artifacts\mvdfrm\UnityEngine.GIModule.dll_7F0F5C8E36A5B357.mvfrm
Library\Bee\artifacts\mvdfrm\UnityEngine.GridModule.dll_B70FEC326186A52B.mvfrm
Library\Bee\artifacts\mvdfrm\UnityEngine.HotReloadModule.dll_BAA5A1F410757C95.mvfrm
Library\Bee\artifacts\mvdfrm\UnityEngine.ImageConversionModule.dll_81C5D65DE3818C80.mvfrm
Library\Bee\artifacts\mvdfrm\UnityEngine.IMGUIModule.dll_BEB9784FA09E5926.mvfrm
Library\Bee\artifacts\mvdfrm\UnityEngine.InputLegacyModule.dll_8CEEE284150C5E92.mvfrm
Library\Bee\artifacts\mvdfrm\UnityEngine.InputModule.dll_ECCFA09950A4E9E9.mvfrm
Library\Bee\artifacts\mvdfrm\UnityEngine.JSONSerializeModule.dll_45FBC9AB446D9637.mvfrm
Library\Bee\artifacts\mvdfrm\UnityEngine.LocalizationModule.dll_EC8E8511A1E61CFE.mvfrm
Library\Bee\artifacts\mvdfrm\UnityEngine.NVIDIAModule.dll_5BE72F289655F220.mvfrm
Library\Bee\artifacts\mvdfrm\UnityEngine.ParticleSystemModule.dll_AB95BE17321DB6DA.mvfrm
Library\Bee\artifacts\mvdfrm\UnityEngine.PerformanceReportingModule.dll_B24E898E04BDD7F3.mvfrm
Library\Bee\artifacts\mvdfrm\UnityEngine.Physics2DModule.dll_8602D3DED63F58A8.mvfrm
Library\Bee\artifacts\mvdfrm\UnityEngine.PhysicsModule.dll_9BFB4884FBECFAB6.mvfrm
Library\Bee\artifacts\mvdfrm\UnityEngine.ProfilerModule.dll_6E8287BEC466115E.mvfrm
Library\Bee\artifacts\mvdfrm\UnityEngine.RuntimeInitializeOnLoadManagerInitializerModule.dll_502D31BC93A21971.mvfrm
Library\Bee\artifacts\mvdfrm\UnityEngine.ScreenCaptureModule.dll_5FE3773058D9C299.mvfrm
Library\Bee\artifacts\mvdfrm\UnityEngine.SharedInternalsModule.dll_05D715335AAF87D0.mvfrm
Library\Bee\artifacts\mvdfrm\UnityEngine.SpriteMaskModule.dll_0C62246C4AF6B5E6.mvfrm
Library\Bee\artifacts\mvdfrm\UnityEngine.SpriteShapeModule.dll_150AF4C032BCE0AB.mvfrm
Library\Bee\artifacts\mvdfrm\UnityEngine.StreamingModule.dll_EDF1D13E84CA1851.mvfrm
Library\Bee\artifacts\mvdfrm\UnityEngine.SubstanceModule.dll_CA9CE587D01D165F.mvfrm
Library\Bee\artifacts\mvdfrm\UnityEngine.SubsystemsModule.dll_770F8ACE193E9DF9.mvfrm
Library\Bee\artifacts\mvdfrm\UnityEngine.TerrainModule.dll_B641C3F3D1AB43A4.mvfrm
Library\Bee\artifacts\mvdfrm\UnityEngine.TerrainPhysicsModule.dll_AC1066EA4B60B167.mvfrm
Library\Bee\artifacts\mvdfrm\UnityEngine.TextCoreFontEngineModule.dll_FCD95497A2AA3632.mvfrm
Library\Bee\artifacts\mvdfrm\UnityEngine.TextCoreTextEngineModule.dll_44C18B09322DEF50.mvfrm
Library\Bee\artifacts\mvdfrm\UnityEngine.TextRenderingModule.dll_8922E93B1011428E.mvfrm
Library\Bee\artifacts\mvdfrm\UnityEngine.TilemapModule.dll_553E2B74E96824AD.mvfrm
Library\Bee\artifacts\mvdfrm\UnityEngine.TLSModule.dll_92EC52F54AF0AE0A.mvfrm
Library\Bee\artifacts\mvdfrm\UnityEngine.UaaLAnalyticsModule.dll_D3CE190AEA222DBE.mvfrm
Library\Bee\artifacts\mvdfrm\UnityEngine.UIElementsModule.dll_7B4DEC361C6AD9F0.mvfrm
Library\Bee\artifacts\mvdfrm\UnityEngine.UIElementsNativeModule.dll_084625593102A047.mvfrm
Library\Bee\artifacts\mvdfrm\UnityEngine.UIModule.dll_E246B1ADF73DD0E9.mvfrm
Library\Bee\artifacts\mvdfrm\UnityEngine.UmbraModule.dll_012E8501679370B8.mvfrm
Library\Bee\artifacts\mvdfrm\UnityEngine.UNETModule.dll_6C45182D964104AD.mvfrm
Library\Bee\artifacts\mvdfrm\UnityEngine.UnityAnalyticsModule.dll_CB352EE0DE4508D6.mvfrm
Library\Bee\artifacts\mvdfrm\UnityEngine.UnityConnectModule.dll_1C04C9B8536A57EA.mvfrm
Library\Bee\artifacts\mvdfrm\UnityEngine.UnityCurlModule.dll_6C79851FA5565300.mvfrm
Library\Bee\artifacts\mvdfrm\UnityEngine.UnityTestProtocolModule.dll_21B2DB0E49A3E76E.mvfrm
Library\Bee\artifacts\mvdfrm\UnityEngine.UnityWebRequestAssetBundleModule.dll_E423FDB9FF44DC27.mvfrm
Library\Bee\artifacts\mvdfrm\UnityEngine.UnityWebRequestAudioModule.dll_2A4ADD6C8B28A28B.mvfrm
Library\Bee\artifacts\mvdfrm\UnityEngine.UnityWebRequestModule.dll_9364DE07EE7626FF.mvfrm
Library\Bee\artifacts\mvdfrm\UnityEngine.UnityWebRequestTextureModule.dll_DC51B66BF248C7C0.mvfrm
Library\Bee\artifacts\mvdfrm\UnityEngine.UnityWebRequestWWWModule.dll_0F83D06521EDABBC.mvfrm
Library\Bee\artifacts\mvdfrm\UnityEngine.VehiclesModule.dll_B3FF4807A53659EC.mvfrm
Library\Bee\artifacts\mvdfrm\UnityEngine.VFXModule.dll_13CAEB64215E1777.mvfrm
Library\Bee\artifacts\mvdfrm\UnityEngine.VideoModule.dll_AB635D539CFEE0EA.mvfrm
Library\Bee\artifacts\mvdfrm\UnityEngine.VirtualTexturingModule.dll_2CD2D9C809B120D2.mvfrm
Library\Bee\artifacts\mvdfrm\UnityEngine.VRModule.dll_3518D83398F85661.mvfrm
Library\Bee\artifacts\mvdfrm\UnityEngine.WindModule.dll_4FEDAB6CDA688D9D.mvfrm
Library\Bee\artifacts\mvdfrm\UnityEngine.XRModule.dll_67D79B382232A3BF.mvfrm
Library\Bee\artifacts\mvdfrm\Unity.Android.Gradle.dll_C402838161CDF271.mvfrm
Library\Bee\artifacts\mvdfrm\Unity.Android.Types.dll_26649FE16CF00C5B.mvfrm
Library\Bee\artifacts\mvdfrm\UnityEditor.Android.Extensions.dll_06C5A8FBEDF50F51.mvfrm
Library\Bee\artifacts\mvdfrm\UnityEditor.WindowsStandalone.Extensions.dll_46FDBF00D4334F27.mvfrm