%YAML 1.1
%TAG !u! tag:unity3d.com,2011:
--- !u!1045 &1
EditorBuildSettings:
  m_ObjectHideFlags: 0
  serializedVersion: 2
  m_Scenes:
  - enabled: 0
    path: 
    guid: 00000000000000000000000000000000
  m_configObjects:
    com.unity.adaptiveperformance.simulator.provider_settings: {fileID: 11400000, guid: 504513d71101b88448865abf6fc64609, type: 2}
